Correlations of pairs of items — pairwise_cor • widyr
…
library(dplyr)
#> 
#> Attaching package: ‘dplyr’
#> The following objects are masked from ‘package:stats’:
#> 
#>     filter, lag
#> The following objects are masked from ‘package:base’:
#> 
#>     intersect, setdiff, setequal, union
library(gapminder)

gapminder %>%
  pairwise_cor(country, year, lifeExp)
#> # A tibble: 20,022 × 3
#>    item1      item2       correlation
#>    <fct>      <fct>             <dbl>
#>  1 Albania    Afghanistan       0.966
#>  2 Algeria    Afghanistan       0.987
#>  3 Angola     Afghanistan       0.986
#>  4 Argentina  Afghanistan       0.971
#>  5 Australia  Afghanistan       0.939
#>  6 Austria    Afghanistan       0.956
#>  7 Bahrain    Afghanistan       0.996
#>  8 Bangladesh Afghanistan       0.947
#>  9 Belgium    Afghanistan       0.963
#> 10 Benin      Afghanistan       0.997
#> # … with 20,012 more rows

gapminder %>%
  pairwise_cor(country, year, lifeExp, sort = TRUE)
#> # A tibble: 20,022 × 3
#>    item1              item2              correlation
#>    <fct>              <fct>                    <dbl>
#>  1 Mauritania         Indonesia                1.00 
#>  2 Indonesia          Mauritania               1.00 
#>  3 Senegal            Morocco                  1.00 
#>  4 Morocco            Senegal                  1.00 
#>  5 West Bank and Gaza Saudi Arabia             1.00 
#>  6 Saudi Arabia       West Bank and Gaza       1.00 
#>  7 France             Brazil                   0.999
#>  8 Brazil             France                   0.999
#>  9 Reunion            Bahrain                  0.999
#> 10 Bahrain            Reunion                  0.999
#> # … with 20,012 more rows
…
