Cluster items based on k-means across features — widely_kmeans • widyr
…
    See also

    widely_hclust()

    Examples

library(gapminder)
library(dplyr)

clusters <- gapminder %>%
  widely_kmeans(country, year, lifeExp, k = 5)

clusters
#> # A tibble: 142 × 2
#>    country            cluster
#>    <fct>              <fct>  
#>  1 Algeria            1      
#>  2 Brazil             1      
#>  3 China              1      
#>  4 Dominican Republic 1      
#>  5 Ecuador            1      
#>  6 Egypt              1      
#>  7 El Salvador        1      
#>  8 Guatemala          1      
#>  9 Honduras           1      
#> 10 Indonesia          1      
#> # … with 132 more rows

clusters %>%
  count(cluster)
#> # A tibble: 5 × 2
#>   cluster     n
#>   <fct>   <int>
#> 1 1          29
#> 2 2          26
#> 3 3          34
#> 4 4          31
#> 5 5          22

# Examine a few clusters
clusters %>% filter(cluster == 1)
#> # A tibble: 29 × 2
#>    country            cluster
#>    <fct>              <fct>  
#>  1 Algeria            1      
#>  2 Brazil             1      
#>  3 China              1      
#>  4 Dominican Republic 1      
#>  5 Ecuador            1      
#>  6 Egypt              1      
#>  7 El Salvador        1      
#>  8 Guatemala          1      
#>  9 Honduras           1      
#> 10 Indonesia          1      
#> # … with 19 more rows
clusters %>% filter(cluster == 2)
#> # A tibble: 26 × 2
#>    country                cluster
#>    <fct>                  <fct>  
#>  1 Albania                2      
#>  2 Argentina              2      
#>  3 Bahrain                2      
#>  4 Bosnia and Herzegovina 2      
#>  5 Chile                  2      
#>  6 Colombia               2      
#>  7 Costa Rica             2      
#>  8 Jamaica                2      
#>  9 Korea, Dem. Rep.       2      
#> 10 Korea, Rep.            2      
#> # … with 16 more rows
…
