Turn into a wide matrix, perform SVD, return to tidy form — widely_svd • widyr
…
A tbl_df with three columns. The first is retained from the item input,
then dimension and value. Each row represents one principal component
value.

    Examples

library(dplyr)
library(gapminder)

# principal components driving change
gapminder_svd <- gapminder %>%
  widely_svd(country, year, lifeExp)

gapminder_svd
#> # A tibble: 1,704 × 3
#>    country     dimension   value
#>    <fct>           <int>   <dbl>
#>  1 Afghanistan         1 -0.0522
#>  2 Albania             1 -0.0949
#>  3 Algeria             1 -0.0824
#>  4 Angola              1 -0.0526
#>  5 Argentina           1 -0.0955
#>  6 Australia           1 -0.103 
#>  7 Austria             1 -0.101 
#>  8 Bahrain             1 -0.0913
#>  9 Bangladesh          1 -0.0696
#> 10 Belgium             1 -0.102 
#> # … with 1,694 more rows
…
