Adverb for functions that operate on matrices in "wide" format — widely • widyr
…
...
Arguments passed on to inner function

widely creates a function that takes those columns as
bare names, widely_ a function that takes them as strings.

    Examples

library(dplyr)
library(gapminder)

gapminder
#> # A tibble: 1,704 × 6
#>    country     continent  year lifeExp      pop gdpPercap
#>    <fct>       <fct>     <int>   <dbl>    <int>     <dbl>
#>  1 Afghanistan Asia       1952    28.8  8425333      779.
#>  2 Afghanistan Asia       1957    30.3  9240934      821.
#>  3 Afghanistan Asia       1962    32.0 10267083      853.
#>  4 Afghanistan Asia       1967    34.0 11537966      836.
#>  5 Afghanistan Asia       1972    36.1 13079460      740.
#>  6 Afghanistan Asia       1977    38.4 14880372      786.
#>  7 Afghanistan Asia       1982    39.9 12881816      978.
#>  8 Afghanistan Asia       1987    40.8 13867957      852.
#>  9 Afghanistan Asia       1992    41.7 16317921      649.
#> 10 Afghanistan Asia       1997    41.8 22227415      635.
#> # … with 1,694 more rows

gapminder %>%
  widely(dist)(country, year, lifeExp)
#> # A tibble: 10,011 × 3
#>    item1       item2       value
#>    <fct>       <fct>       <dbl>
#>  1 Afghanistan Albania    107.  
#>  2 Afghanistan Algeria     76.8 
#>  3 Afghanistan Angola       4.65
#>  4 Afghanistan Argentina  110.  
#>  5 Afghanistan Australia  129.  
#>  6 Afghanistan Austria    124.  
#>  7 Afghanistan Bahrain     98.1 
#>  8 Afghanistan Bangladesh  45.3 
#>  9 Afghanistan Belgium    125.  
#> 10 Afghanistan Benin       39.3 
#> # … with 10,001 more rows

# can perform within groups
closest_continent <- gapminder %>%
  group_by(continent) %>%
  widely(dist)(country, year, lifeExp)
closest_continent
#> # A tibble: 2,590 × 4
#> # Groups:   continent [5]
#>    continent item1       item2            value
#>    <fct>     <fct>       <fct>            <dbl>
#>  1 Asia      Afghanistan Bahrain           98.1
#>  2 Asia      Afghanistan Bangladesh        45.3
#>  3 Asia      Afghanistan Cambodia          41.8
#>  4 Asia      Afghanistan China             86.2
#>  5 Asia      Afghanistan Hong Kong, China 125. 
#>  6 Asia      Afghanistan India             56.1
#>  7 Asia      Afghanistan Indonesia         62.3
#>  8 Asia      Afghanistan Iran              74.5
#>  9 Asia      Afghanistan Iraq              66.9
#> 10 Asia      Afghanistan Israel           125. 
#> # … with 2,580 more rows
…
